<?xml version="1.0" encoding="utf-8" standalone="no"?><!DOCTYPE svg PUBLIC "-//W3C//DTD SVG 20010904//EN" "http://www.w3.org/TR/2001/REC-SVG-20010904/DTD/svg10.dtd"><svg xmlns="http://www.w3.org/2000/svg" width="593" height="410" xmlns:xlink="http://www.w3.org/1999/xlink"><source><![CDATA[Search->RequestHelper: Search terms
RequestHelper-->Search: Receive results
Search->TitleList: Send results
TitleList->TitleList: List titles
TitleList-->>Search: Continue to search when\nscrolled to the bottom
TitleList->TitleInfo: Show title info\non title selection]]></source><desc></desc><defs><marker viewBox="0 0 5 5" markerWidth="5" markerHeight="5" orient="auto" refX="5" refY="2.5" id="markerArrowBlock"><path d="M 0 0 L 5 2.5 L 0 5 z"></path></marker><marker viewBox="0 0 9.6 16" markerWidth="4" markerHeight="16" orient="auto" refX="9.6" refY="8" id="markerArrowOpen"><path d="M 9.6,8 1.92,16 0,13.7 5.76,8 0,2.286 1.92,0 9.6,8 z"></path></marker></defs><g class="title"></g><g class="actor"><rect x="10" y="20" width="72.78125" height="39" stroke="#000000" fill="#ffffff" style="stroke-width: 2;"></rect><text x="20" y="45" style="font-size: 16px; font-family: &quot;Andale Mono&quot;, monospace;"><tspan x="20">Search</tspan></text></g><g class="actor"><rect x="10" y="351.375" width="72.78125" height="39" stroke="#000000" fill="#ffffff" style="stroke-width: 2;"></rect><text x="20" y="376.375" style="font-size: 16px; font-family: &quot;Andale Mono&quot;, monospace;"><tspan x="20">Search</tspan></text></g><line x1="46.390625" x2="46.390625" y1="59" y2="351.375" stroke="#000000" fill="none" style="stroke-width: 2;"></line><g class="actor"><rect x="131.0625" y="20" width="134.5625" height="39" stroke="#000000" fill="#ffffff" style="stroke-width: 2;"></rect><text x="141.0625" y="45" style="font-size: 16px; font-family: &quot;Andale Mono&quot;, monospace;"><tspan x="141.0625">RequestHelper</tspan></text></g><g class="actor"><rect x="131.0625" y="351.375" width="134.5625" height="39" stroke="#000000" fill="#ffffff" style="stroke-width: 2;"></rect><text x="141.0625" y="376.375" style="font-size: 16px; font-family: &quot;Andale Mono&quot;, monospace;"><tspan x="141.0625">RequestHelper</tspan></text></g><line x1="198.34375" x2="198.34375" y1="59" y2="351.375" stroke="#000000" fill="none" style="stroke-width: 2;"></line><g class="actor"><rect x="285.625" y="20" width="99.171875" height="39" stroke="#000000" fill="#ffffff" style="stroke-width: 2;"></rect><text x="295.625" y="45" style="font-size: 16px; font-family: &quot;Andale Mono&quot;, monospace;"><tspan x="295.625">TitleList</tspan></text></g><g class="actor"><rect x="285.625" y="351.375" width="99.171875" height="39" stroke="#000000" fill="#ffffff" style="stroke-width: 2;"></rect><text x="295.625" y="376.375" style="font-size: 16px; font-family: &quot;Andale Mono&quot;, monospace;"><tspan x="295.625">TitleList</tspan></text></g><line x1="335.2109375" x2="335.2109375" y1="59" y2="351.375" stroke="#000000" fill="none" style="stroke-width: 2;"></line><g class="actor"><rect x="463.8671875" y="20" width="99.375" height="39" stroke="#000000" fill="#ffffff" style="stroke-width: 2;"></rect><text x="473.8671875" y="45" style="font-size: 16px; font-family: &quot;Andale Mono&quot;, monospace;"><tspan x="473.8671875">TitleInfo</tspan></text></g><g class="actor"><rect x="463.8671875" y="351.375" width="99.375" height="39" stroke="#000000" fill="#ffffff" style="stroke-width: 2;"></rect><text x="473.8671875" y="376.375" style="font-size: 16px; font-family: &quot;Andale Mono&quot;, monospace;"><tspan x="473.8671875">TitleInfo</tspan></text></g><line x1="513.5546875" x2="513.5546875" y1="59" y2="351.375" stroke="#000000" fill="none" style="stroke-width: 2;"></line><g class="signal"><text x="69.5859375" y="89.5" style="font-size: 16px; font-family: &quot;Andale Mono&quot;, monospace;"><tspan x="69.5859375">Search terms</tspan></text><line x1="46.390625" x2="198.34375" y1="98" y2="98" stroke="#000000" fill="none" style="stroke-width: 2; marker-end: url(&quot;#markerArrowBlock&quot;);"></line></g><g class="signal"><text x="56.390625" y="128.5" style="font-size: 16px; font-family: &quot;Andale Mono&quot;, monospace;"><tspan x="56.390625">Receive results</tspan></text><line x1="198.34375" x2="46.390625" y1="137" y2="137" stroke="#000000" fill="none" style="stroke-width: 2; stroke-dasharray: 6, 2; marker-end: url(&quot;#markerArrowBlock&quot;);"></line></g><g class="signal"><text x="138.01953125" y="167.5" style="font-size: 16px; font-family: &quot;Andale Mono&quot;, monospace;"><tspan x="138.01953125">Send results</tspan></text><line x1="46.390625" x2="335.2109375" y1="176" y2="176" stroke="#000000" fill="none" style="stroke-width: 2; marker-end: url(&quot;#markerArrowBlock&quot;);"></line></g><g class="signal"><text x="360.2109375" y="210.5" style="font-size: 16px; font-family: &quot;Andale Mono&quot;, monospace;"><tspan x="360.2109375">List titles</tspan></text><line x1="335.2109375" x2="355.2109375" y1="196" y2="196" stroke="#000000" fill="none" style="stroke-width: 2;"></line><line x1="355.2109375" x2="355.2109375" y1="196" y2="220" stroke="#000000" fill="none" style="stroke-width: 2;"></line><line x1="355.2109375" x2="335.2109375" y1="220" y2="220" stroke="#000000" fill="none" style="stroke-width: 2; marker-end: url(&quot;#markerArrowBlock&quot;);"></line></g><g class="signal"><text x="89.63671875" y="235.90625" style="font-size: 16px; font-family: &quot;Andale Mono&quot;, monospace;"><tspan x="89.63671875">Continue to search when</tspan><tspan dy="1.2em" x="89.63671875">scrolled to the bottom</tspan></text><line x1="335.2109375" x2="46.390625" y1="273.1875" y2="273.1875" stroke="#000000" fill="none" style="stroke-width: 2; stroke-dasharray: 6, 2; marker-end: url(&quot;#markerArrowOpen&quot;);"></line></g><g class="signal"><text x="345.2109375" y="294.09375" style="font-size: 16px; font-family: &quot;Andale Mono&quot;, monospace;"><tspan x="345.2109375">Show title info</tspan><tspan dy="1.2em" x="345.2109375">on title selection</tspan></text><line x1="335.2109375" x2="513.5546875" y1="331.375" y2="331.375" stroke="#000000" fill="none" style="stroke-width: 2; marker-end: url(&quot;#markerArrowBlock&quot;);"></line></g></svg>