%YAML 1.1
%TAG !u! tag:unity3d.com,2011:
--- !u!114 &11400000
MonoBehaviour:
  m_ObjectHideFlags: 0
  m_PrefabParentObject: {fileID: 0}
  m_PrefabInternal: {fileID: 0}
  m_GameObject: {fileID: 0}
  m_Enabled: 1
  m_EditorHideFlags: 0
  m_Script: {fileID: 11500000, guid: 5ab57a76bfc6447981954c90de075627, type: 3}
  m_Name: YleSettings
  m_EditorClassIdentifier: 
  Request:
    BaseApiUrl: https://external.api.yle.fi
    SearchUrl: v1/programs/items.json
    TitleUrlTemplate: v1/programs/items/{0}.json
    ImageUrlTemplate: https://images.cdn.yle.fi/image/upload/c_fill,f_auto,fl_lossy,q_auto,w_{0},h_{1}/{2}.jpg
    AppId: 40bb2395
    AppKey: ac2279112ae7d65b40b8ab19c75eb98b
    AppIdKey: app_id
    AppKeyKey: app_key
    QueryKey: q
    LimitKey: limit
    OffsetKey: offset
  TitleListing:
    TitleListItemPrefab: {fileID: 1470716666867324, guid: 08475fa123fd23445aeac915edc856d3,
      type: 2}
    ItemSearchLimit: 12
  Image:
    ListItemWidth: 338
    ListItemHeight: 507
    CoverHeight: 700
    FadeDuration: 1
  Screen:
    ScreenAnimationDuration: 0.3
  Language:
    DefaultLanguageCode: en
    FallbackLanguageCode: fi
